{
  "_id": "22aef763cb7f495dbc3db4e740b3c96d",
  "authors": [
    "Art of the Problem"
  ],
  "description": "The story of a collision between math and philosophy feat. Leibniz, Boole, Babbage, Turing, Shannon, Russel, G\u00f6del and many more...",
  "formats": [
    "mp4",
    "webm",
    "3gp"
  ],
  "height": 720,
  "length": 363,
  "license": "public domain",
  "schema_uuid": "ace61d9339f2440e8c9b3e82c11ba63a",
  "title": "What is Computer Science?",
  "type": "video",
  "video_best_resolution": "1280x720",
  "video_description": "Overview video for this series on Computer Science. The story of a collision between math and philosophy feat. Leibniz, Boole, Babbage, Turing, Shannon, Russel, G\u00f6del and many more...\n\nCheck out an essay version of this video (with links) on Medium: https://medium.com/@britcruise/what-i...\n\nSupport this independent effort on Patreon: https://www.patreon.com/artoftheprobl... \nor Bitcoin:  1934xLk75Z7qCe43VA9Mznos645Cx74Rq9",
  "width": 1280
}