{
  "_id": "319c3b9038e34dea979de40ab00e5208",
  "authors": [
    "Tinkernut"
  ],
  "description": "How to record all the key presses on your computer with a Python program.",
  "formats": [
    "mp4",
    "webm",
    "3gp"
  ],
  "height": 720,
  "length": 309,
  "license": "public domain",
  "schema_uuid": "ace61d9339f2440e8c9b3e82c11ba63a",
  "title": "How To Make A Simple Python Keylogger",
  "type": "video",
  "video_best_resolution": "1280x720",
  "video_description": "Learn how to make a 360 video camera!\nhttps://www.youtube.com/watch?v=KSRaU9MHVVg\n-~-~~-~~~-~~-~-\n\nPython is a really easy programming language for beginners. What better way to showcase it's range of abilities than making a simple keylogger.",
  "width": 1280
}