{
  "_id": "3b147a3fb79544b6a13f78ccf9c9f06e",
  "authors": [
    "Computerphile"
  ],
  "description": "Voting is centuries old, why can't we move with the times and use our phones, tablets and computers? Tom Scott lays out why e-voting is such a bad idea.",
  "formats": [
    "mp4",
    "3gp",
    "webm"
  ],
  "height": 720,
  "length": 501,
  "license": "public domain",
  "schema_uuid": "ace61d9339f2440e8c9b3e82c11ba63a",
  "title": "Why Electronic Voting is a BAD Idea - Computerphile",
  "type": "video",
  "video_best_resolution": "1280x720",
  "video_description": "Voting is centuries old, why can't we move with the times and use our phones, tablets and computers? Tom Scott lays out why e-voting is such a bad idea.\n\nMore from Tom Scott: http://www.youtube.com/user/enyay and https://twitter.com/tomscott\n\nhttp://www.facebook.com/computerphile\nhttps://twitter.com/computer_phile\n\nThis video was filmed and edited by Sean Riley.\n\nComputer Science at the University of Nottingham: http://bit.ly/nottscomputer\n\nComputerphile is a sister project to Brady Haran's Numberphile. See the full list of Brady's video projects at: http://bit.ly/bradychannels",
  "width": 1280
}