{
  "_id": "68a0892c999a433c86a483831e190913",
  "authors": [
    "Stuart Spence"
  ],
  "description": "These videos for teachers explain how to use the coding playground green series videos to teach how to make 3D games.",
  "formats": [
    "mp4",
    "3gp",
    "webm"
  ],
  "height": 720,
  "length": 264,
  "license": "public domain",
  "schema_uuid": "ace61d9339f2440e8c9b3e82c11ba63a",
  "title": "Coding Playground - Green Series 2-1",
  "type": "video",
  "video_best_format": "mp4",
  "video_best_resolution": "1280x720",
  "video_description": "This video series is designed for teachers with minimal programming experience. Each video is a walkthrough of the coding exercise for students, so teachers can focus on how to teach instead of spending time on technical details. To access the lesson plan document, visit the website:\n\nwww.codingplayground.ca",
  "width": 1280
}