{
  "_id": "789e3d709c504fa5ad099d07903397e0",
  "authors": [
    "styropyro"
  ],
  "description": "Video of a 40W laser shotgun! The output of this laser is complete insanity, and is made up of 8 parallel 5W laser beams totaling to 40W.",
  "formats": [
    "mp4",
    "3gp",
    "webm"
  ],
  "height": 720,
  "length": 114,
  "license": "public domain",
  "schema_uuid": "ace61d9339f2440e8c9b3e82c11ba63a",
  "title": "My Homemade 40W LASER SHOTGUN!!!!!",
  "type": "video",
  "video_best_resolution": "1280x720",
  "video_description": "Just finished building my 40W(!!!) laser shotgun!!! The output of this laser is complete insanity, and is made up of 8 parallel 5W laser beams totaling to 40W. The parallel beams are manipulated with lenses, sort of like how a choke modifies the spread of a shotgun blast.\n\nFollow me on Instagram to see some crazy stuff!! :D https://www.instagram.com/styro.drake/\n\nThe massive diode array is powered by a huge lithium polymer battery pack (capable up dumping 250A) and the laser array is regulated by a whopping 24 LM317 drivers. \n\nFollow me on FaceBook and see my video clips that don't get posted to YouTube!! https://www.facebook.com/diylaserguy\n\nFor licensing/usage please email licensing@rumble.com.\n\nCheck out http://laserpointerforums.com to learn more about laser pointers, lasers, and laser pointer companies! I have been a member there for 8 years, and have received a bunch of help from the knowledgeable members there!\n\nThis is definitely the craziest thing I have ever built, but I hope to beat this invention with something even crazier before too long. :D",
  "width": 1280
}