{
  "_id": "83736bded2614eff9f306eeee315fa63",
  "authors": [
    "David Forcier"
  ],
  "description": "A funny example of how technology is portrayed innacurately on television.",
  "formats": [
    "mp4",
    "3gp",
    "webm"
  ],
  "height": 360,
  "length": 96,
  "license": "public domain",
  "schema_uuid": "ace61d9339f2440e8c9b3e82c11ba63a",
  "title": "Gibbs VS computer",
  "type": "video",
  "video_best_resolution": "640x360",
  "video_description": "I just like this scene. All rights to CBS.",
  "width": 640
}