{
  "_id": "ebe8b267ec654730a85d4fdded44e03d",
  "authors": [
    "Art of the Problem"
  ],
  "description": "A video explaining digital information and error correction.",
  "formats": [
    "mp4",
    "webm",
    "3gp"
  ],
  "height": 720,
  "length": 324,
  "license": "public domain",
  "schema_uuid": "ace61d9339f2440e8c9b3e82c11ba63a",
  "title": "How do error correction codes work? (Hamming coding)",
  "type": "video",
  "video_best_resolution": "1280x720",
  "video_description": "How do we communicate digital information reliably in the presence of noise? Hamming's (7,4) error correction code demonstrates how parity bits can help us recover from transmission/storage errors. This must be taken into account when thinking about Shannon's idea of channel capacity and information rate.",
  "width": 1280
}