{
  "_id": "7247da8c9b5744ec8edde2f7ad9efaf0",
  "authors": [
    "Stuart Spence"
  ],
  "date": {
    "day": 7,
    "month": 3,
    "year": 2015
  },
  "description": "Have you ever noticed that for-profit companies often advertise free or cheap software licenses to students, teachers, and schools? Microsoft, Apple, Amazon, Google, and countless others all offer deals on their software and services to schools. Why do they do that? This post is written for educators, not tech experts or computer programmers.",
  "license": "",
  "schema_uuid": "ace61d9339f2440e8c9b3e82c11ba63a",
  "title": "Why Do For-Profit Companies Give Software to Schools?",
  "type": "article",
  "word_count": 1231
}