{
  "_id": "38691fb78bd84f9f8cd56ab1c2fe5496",
  "description": "Scott Young challenged himself to complete the MIT computer science curriculum in 12 months. Could you do that?",
  "extra": "",
  "instructions": "###Watch the Video\nWatch the Scott Young video found on this page.\n\n###Write a Short Report\nWrite short answers to the following questions:\n\n1. Do you think you could learn computer science this way?\n2. Do you learn best alone, or in groups?\n3. How important is it to you to have friends taking the same classes as you?\n4. Have you ever taken an online course, or thought about taking one? Why or why not?\n5. Compare two people: one with a computer science university degree, another who completed all these courses like Scott Young. Who do you think will earn more money? Who do you think is the more passionate programmer?",
  "license": "public domain",
  "mirrors": [
    "e37ed491da8c4fdf99fda1da5549b0f3"
  ],
  "recommended_searches": [
    "online computer science courses",
    "youtube introduction to computer science videos"
  ],
  "schema_uuid": "8c1f65f35d0443bdad1d1d9aa19e45b6",
  "submission": "A document with answers to all assignment questions.",
  "title": "Could you teach yourself computer science for free?"
}