{
  "_id": "ad862262375d43a691374f5b224dea22",
  "description": "By installing a browser extension called \"Ghostery\" you can find out which companies are spying on you when you visit your favourite websites.",
  "extra": "For extra points:\n\n* Research many websites, and many companies.\n* Write a detailed and clear document.",
  "instructions": "Ghostery is a browser extension that will give you information about which websites are tracking you when you visit your favourite websites. You'll be installing Ghostery, finding out who is tracking you, and then research who those companies really are.\n\n###Install Ghostery\nDo a web search for \"install ghostery\" or click the links on this page. Most popular browsers will be able to install Ghostery. If yours doesn't, try installing another browser like Firefox and installing Ghostery on it instead.\n\nYou should now see (probably on the top right) a new icon for Ghostery. You can click it to get information on who is tracking you when you visit websites.\n\n###Who is Tracking You?\nYou need to write your findings in a document.\n\nList three websites you visit regularly. How many trackers do they have? Choose at least two of those trackers/companies. Research them:\n\n* Who are they?\n* Where are they located?\n* What's their main website?\n* How big are they?\n* What career background and education do the founders/owners of the company have?\n* What do they do with your data?\n* Do you feel like you ever gave them permission to track you, and is there a way to stop them?\n\nDo your best to answer these questions. If it's hard or impossible to find any information, write that down too.",
  "license": "",
  "mirrors": [],
  "recommended_searches": [
    "install ghostery",
    "what is a browser cookie",
    "download install firefox"
  ],
  "schema_uuid": "8c1f65f35d0443bdad1d1d9aa19e45b6",
  "submission": "A document with responses to the questions.",
  "title": "Find out Which Web Companies Are Spying on You"
}