{
  "_id": "df621445b0df46c4b3ff050862582624",
  "description": "The wargames offered by the OverTheWire community can help you to learn and practice security concepts in the form of fun-filled games.",
  "extra": "For extra points:\n\n* Finish the entire Bandit challenge.\n* Finish one or more of the harder challenges.\n* Write your thoughts and experiences as you progress through the levels. Which levels were easiest? Which were most frustrating? Your journal can be more extensive than the one described in the \"instructions\" section.",
  "instructions": "###Go to the Website\nFollow the links on this page, or go to the \"over the wire\" website and search for the easiest challenge called \"Bandit\".\n\n###SSH\nYou will need to connect to the Wargames computers through SSH. Follow the links on this page for web searches on how to do that.\n\n###Journal\nFor every 5 or 10 levels you complete, you must write a couple sentences *in your own words* about what you've accomplished and what you had to learn to get this far. The reasons you should do this are:\n\n* It helps you learn and remember. Really!\n* It's the easiest way to prove you actually did work and didn't just look up the quickest easiest answers.\n\n###Answers Online\nIt's common knowledge that the Wargames solutions are out there on the internet. But beware - it's very easy for a teacher to ask you to show them how you solved an earlier level.\n\nIf your web searches include the search terms \"bandit\" or \"wargames\" you probably aren't living up to the spirit of the games. You should only be searching for things directly related to bash, Linux, SSH, security, etc.\n\n###Get Started!\nFollow the instructions on the OverTheWire website to get started!",
  "license": "public domain",
  "mirrors": [],
  "recommended_searches": [
    "overthewire wargames bandit",
    "How to SSH on Windows",
    "How to SSH on MacOS",
    "How to SSH on Linux",
    "how to save ssh console ouput"
  ],
  "schema_uuid": "8c1f65f35d0443bdad1d1d9aa19e45b6",
  "submission": "At a minimum, you should nearly complete the entire Bandit challenge. \n\n###Proof\nYou must show your teacher the farthest level you were able to log into. Show them your SSH login status.\n\n###Journal\nYou must submit the journal.",
  "title": "Practice Security Concepts with Wargames - Bandit"
}