{
  "_id": "36989b4ccb1a40b59c22da3875d6188e",
  "answers": [
    {
      "text": "Yes.",
      "value": "1"
    },
    {
      "text": "Maybe, or I don't know.",
      "value": "0.5"
    },
    {
      "text": "No.",
      "value": "0"
    }
  ],
  "description": "Anything Minecraft related. This includes voxel engines, open source Minecraft clones, and exercises inside the Minecraft game.",
  "desire_type": "bonus penalty",
  "license": "public domain",
  "maximum": 100,
  "minimum": 0,
  "prompt": "I like Minecraft.",
  "schema_uuid": "b525d0c74f754a88a8af4fffa954795e",
  "subtitle": "topic",
  "title": "minecraft"
}