{
  "_id": "78e1a75b699e4e0a8be90cde77b71d9c",
  "answers": [
    {
      "text": "Yes.",
      "value": "1"
    },
    {
      "text": "Maybe, or I don't know.",
      "value": "0.5"
    },
    {
      "text": "No.",
      "value": "0"
    }
  ],
  "description": "This means 'about' teamwork, and not necessarily things that require teamwork. This includes version control systems, communities, crowd computing, crowdsourcing, crowdfunding, decentralization, open source, etc.",
  "desire_type": "bonus penalty",
  "license": "public domain",
  "maximum": 100,
  "minimum": 0,
  "prompt": "Show me results about how teams of people use computers to work together.",
  "schema_uuid": "b525d0c74f754a88a8af4fffa954795e",
  "subtitle": "topic",
  "title": "teamwork tools"
}