{
  "_id": "7c894bf073144d8e872625b8bdc30fc0",
  "answers": [
    {
      "text": "Yes.",
      "value": "1"
    },
    {
      "text": "Sometimes.",
      "value": "0.5"
    },
    {
      "text": "No.",
      "value": "0"
    },
    {
      "text": "I don't know.",
      "value": "-1"
    }
  ],
  "description": "Requires Microsoft Windows or runs best in Windows.",
  "desire_type": "just penalty",
  "license": "public domain",
  "maximum": 100,
  "minimum": 0,
  "prompt": "I have access to a computer with Microsoft Windows.",
  "schema_uuid": "b525d0c74f754a88a8af4fffa954795e",
  "subtitle": "material",
  "title": "microsoft"
}