{
  "_id": "af979fee03ab4a2391b583268170ea32",
  "answers": [
    {
      "text": "Yes.",
      "value": "1"
    },
    {
      "text": "Maybe, or I don't know.",
      "value": "0.5"
    },
    {
      "text": "No.",
      "value": "0"
    }
  ],
  "description": "Anything related to data: databases, data storage, compression, data transfers.",
  "desire_type": "bonus penalty",
  "license": "public domain",
  "maximum": 100,
  "minimum": 0,
  "prompt": "Show me results about how computers store and access data.",
  "schema_uuid": "b525d0c74f754a88a8af4fffa954795e",
  "subtitle": "topic",
  "title": "data"
}