{
  "_id": "caf65ca4b1a3456cb55fb07616eebd70",
  "answers": [
    {
      "text": "As low cost as possible.",
      "value": "0"
    },
    {
      "text": "Small.",
      "value": "0.3"
    },
    {
      "text": "Big.",
      "value": "0.6"
    },
    {
      "text": "We're lucky. Money is not an issue.",
      "value": "1"
    },
    {
      "text": "Show me everything.",
      "value": -1
    }
  ],
  "description": "Finances can restrict the use of learning objects. Some learning objects require just paper. Others require buying specialized hardware like 3D printers, robotics kits, and drones.",
  "desire_type": "just penalty",
  "label_down": "cheap",
  "label_up": "costly",
  "license": "public domain",
  "maximum": 10000,
  "mean": 100,
  "minimum": 0,
  "prompt": "What is the budget?",
  "schema_uuid": "b525d0c74f754a88a8af4fffa954795e",
  "subtitle": "material",
  "title": "price"
}