{
  "_id": "e8a0590c3e7d472d8e306ec6206b7f40",
  "answers": [
    {
      "text": "Yes.",
      "value": "1"
    },
    {
      "text": "Maybe, or I don't know.",
      "value": "0.5"
    },
    {
      "text": "No.",
      "value": "0"
    }
  ],
  "description": "This describes hands on arts and crafts like drawing, painting, sculpting, making models, etc.",
  "desire_type": "bonus penalty",
  "license": "public domain",
  "maximum": 100,
  "minimum": 0,
  "prompt": "Arts and crafts are a good way to learn.",
  "schema_uuid": "b525d0c74f754a88a8af4fffa954795e",
  "subtitle": "preference",
  "title": "arts and crafts"
}