{
  "_id": "ed2fe2306e6b4626acdebe8723e6b3cc",
  "answers": [
    {
      "text": "Yes.",
      "value": "1"
    },
    {
      "text": "Maybe, or I don't know.",
      "value": "0.5"
    },
    {
      "text": "No.",
      "value": "0"
    }
  ],
  "description": "Anything related to the Apple, or software that runs in MacOS or iOS.",
  "desire_type": "bonus penalty",
  "license": "public domain",
  "maximum": 100,
  "minimum": 0,
  "prompt": "Show me results about Apple and Macs.",
  "schema_uuid": "b525d0c74f754a88a8af4fffa954795e",
  "subtitle": "topic",
  "title": "apple"
}